%YAML 1.1
%TAG !u! tag:unity3d.com,2011:
--- !u!1 &6578093278758997021
GameObject:
  m_ObjectHideFlags: 0
  m_CorrespondingSourceObject: {fileID: 0}
  m_PrefabInstance: {fileID: 0}
  m_PrefabAsset: {fileID: 0}
  serializedVersion: 6
  m_Component:
  - component: {fileID: 6578093278758997023}
  - component: {fileID: 6578093278758997020}
  m_Layer: 0
  m_Name: Meter
  m_TagString: Untagged
  m_Icon: {fileID: 7250588514170254948, guid: 0000000000000000d000000000000000, type: 0}
  m_NavMeshLayer: 0
  m_StaticEditorFlags: 0
  m_IsActive: 1
--- !u!4 &6578093278758997023
Transform:
  m_ObjectHideFlags: 0
  m_CorrespondingSourceObject: {fileID: 0}
  m_PrefabInstance: {fileID: 0}
  m_PrefabAsset: {fileID: 0}
  m_GameObject: {fileID: 6578093278758997021}
  m_LocalRotation: {x: 0, y: 0, z: 0, w: 1}
  m_LocalPosition: {x: 0.02, y: 0.22, z: -0.04296875}
  m_LocalScale: {x: 1, y: 1, z: 1}
  m_Children: []
  m_Father: {fileID: 0}
  m_RootOrder: 0
  m_LocalEulerAnglesHint: {x: 0, y: 0, z: 0}
--- !u!114 &6578093278758997020
MonoBehaviour:
  m_ObjectHideFlags: 0
  m_CorrespondingSourceObject: {fileID: 0}
  m_PrefabInstance: {fileID: 0}
  m_PrefabAsset: {fileID: 0}
  m_GameObject: {fileID: 6578093278758997021}
  m_Enabled: 1
  m_EditorHideFlags: 0
  m_Script: {fileID: 11500000, guid: 4ffb2969bdb71bb4495f987832f688ec, type: 3}
  m_Name: 
  m_EditorClassIdentifier: 
  air: 10
  maxAir: 10
  airBurnRate: 1
  bgTexture: {fileID: 2800000, guid: a218e1d09c8fe844a8127989080b165e, type: 3}
  airBarTexture: {fileID: 2800000, guid: fb3734e536e8c284fa538271f2555ab0, type: 3}
  iconWidth: 32
  airOffset: {x: 10, y: 10}
